{
  "type": "service_account",
  "project_id": "taxidriver-23cbd",
  "private_key_id": "43079870e88a1a7f9e55611f8b292a5a92784fbc",
  "private_key": "-----BEGIN PRIVATE KEY-----\nMIIEvgIBADANBgkqhkiG9w0BAQEFAASCBKgwggSkAgEAAoIBAQCe7Zn2N6u9OBBJ\ncyyzD+02J16wXfFs6xDnfhjRzjnz/LaBA6ZS9+7twTlsRaz+ASdo66YmAnRMf36J\n0AeDKf2SqmRKMoo9/LzAVUqwK5m1nIl0jc1M2aUWzs03O0XyjbDPl+Ng2cUQuYQM\nqzbsDmcuBk1JGDcPr6PS5uFReZpvwpvbJLXMmmJnrKPyRulNIiacNiBqwyaIrPfI\n2XzhDUgMmto3Js/ZC2p8jy6vUBlblPoCZYLKwy0iDedyNKVgX5T1vsGro0ezCMih\n5A2SP+EgF9kuz1k1a/wgnylq/tYMSp+Fk1HbDEKhZQzNxVF62a6XQrmJ2QkeEK1C\nS2+gaqzlAgMBAAECggEAIvXQbvWrHTomdwnTdOZVf5qkfTaFI7kH5Gx8KDbtz6qx\nOOslHM42bG2bZKJlHhEB6tYfm+/hRmyrWMR+yo8jnS5HVn0MpPsiSEra3asRqn4v\nTIje9v9Pjhda1EIBLoyVruzSE12EOJwenKzTLZUzhE/Vk3U0s4onBv9L5GDUJK45\nDe2H8zBOSQ35zIX/+S0wGECXiInnVvQ1ACdBUo8JGq3kE2XNQv45L27uO8NFsRkY\npZfIPR3LITmT8mPheH745W/EmvfaIUliXhuRZPKnB0KisvKTRoJHL8mD3p35P4p2\nMz2XnFtAOp7bYDopq+bQWCapFQXL5hcfjkoDhIX3oQKBgQDbVdF70MUTBvpBCCgH\nCazrV7z2RuqH1sDcrs9JlKIXxBcX7+jma/npr9KL5+8XoRZyW8upZZ3msnGRwvmi\ns7fXSL0IKqYyfd/RX4wS0fkQR26UZkbIj6AYPnlDVfnbhu7yj+8kAnTE1S/WG9kh\neTuEiPI+0nMf57ZGbGbeUcfCFQKBgQC5frxO6nP7Z8J35RuUvYUH4y1RSveHZBKo\ndlRdXoHV10IEMFG1YfYb70y1Mt+ZrBjEPqHqAAZ8/s/Rv1JhtuJwpUwOdcjP5d9y\nhcLKWBM/p3zrk9DOoyiUmqu5j9dsnvy7MokFkHIejth1MNfZIsVuM1/BZ810ub+0\niyjSXGGDkQKBgBqj2cXIHaep+Utcyj/QlQggp/rhsiq9kr87HEI7o1RvpL5rjUYv\nZzNS/6eujAO6tRc+vwXcKcmTcufZXqi8W1/yncMYKweG8mBj0oeWqUGo621q3r4N\nc8x+Cgx7rNVVFkCv6sPc6IHfwuemikDekLQQThwDQ6hkZGc5U2U9WZ3hAoGBAITt\n2pqfD3CpocXzzHkh+5R0a8Rm+c3vnCNXcQvcLyUEdo2z5soaIplQOuNbSrvAhZsU\n20lqrTukC1/fQHU/7zQUcNWn+LlrnV5flwEUbu7d4vqbWjbK28jqsodvGkz//lNU\nWrc/FVjquxn4X6Z+cYeQj111OtocRtJmK2HczBDRAoGBAJm1vdPtV1AgxSDml5X/\nAhtPVwRNE/Hkny3qSPKdhakYbe11FveinvYqf8u7ATxlU6mg9ccoaPFG2JawmsEP\nHDzztnW4C2C8IrxA9Vv283GC/LGutoQiG/NU8R0YoNuhmgjOsCnr+iv+nIyPMjFB\nW0nSVHD6BqbkCbwvei4+BVna\n-----END PRIVATE KEY-----\n",
  "client_email": "firebase-adminsdk-56oqq@taxidriver-23cbd.iam.gserviceaccount.com",
  "client_id": "109286930642627930650",
  "auth_uri": "https://accounts.google.com/o/oauth2/auth",
  "token_uri": "https://oauth2.googleapis.com/token",
  "auth_provider_x509_cert_url": "https://www.googleapis.com/oauth2/v1/certs",
  "client_x509_cert_url": "https://www.googleapis.com/robot/v1/metadata/x509/firebase-adminsdk-56oqq%40taxidriver-23cbd.iam.gserviceaccount.com"
}
